{
  "count": 21,
  "next": "http://ec2-3-17-24-2.us-east-2.compute.amazonaws.com:9990/rest/v1/travel-with-passage/?page=2",
  "previous": null,
  "results": [
    {
      "id": 183,
      "estimated_departure": "22/11/21 06:15",
      "estimated_arrival": "22/11/21 08:00",
      "total_capacity": 22,
      "count_passages": 1,
      "finished": false,
      "rute": {
        "stops": [
          {
            "id": 13,
            "deleted": false,
            "created_at": "2021-10-27T11:22:28.240621+00:00",
            "updated_at": "2021-10-27T11:22:28.240640+00:00",
            "name": "Canelones",
            "location": "-34.52257537124503,-56.27070665359497"
          },
          {
            "id": 14,
            "deleted": false,
            "created_at": "2021-10-27T11:22:38.811717+00:00",
            "updated_at": "2021-10-27T11:22:38.811736+00:00",
            "name": "Florida",
            "location": "-34.09773289693434,-56.19614124298096"
          }
        ],
        "id": 6,
        "deleted": false,
        "created_at": "2021-10-27T11:36:04.081241+00:00",
        "updated_at": "2021-10-27T11:36:04.081260+00:00",
        "name": "Montevideo - Fray Bentos",
        "origin": {
          "id": 2,
          "deleted": false,
          "created_at": "2021-09-24T01:24:23.474695+00:00",
          "updated_at": "2021-10-27T11:22:10.611380+00:00",
          "name": "Montevideo",
          "location": "-34.89311206510446,-56.16511344909668"
        },
        "destination": {
          "id": 12,
          "deleted": false,
          "created_at": "2021-10-21T17:08:57.969596+00:00",
          "updated_at": "2021-10-21T17:08:57.969617+00:00",
          "name": "Fray Bentos",
          "location": "-33.12835119163156,-58.32641601562499"
        }
      },
      "program": {
        "vehicles": [
          6
        ],
        "subscribed_passenger": [],
        "id": 9,
        "deleted": false,
        "created_at": "2021-10-31T16:08:56.046710+00:00",
        "updated_at": "2021-10-31T16:08:56.046732+00:00",
        "capacity_limit": 100,
        "arrival_time": "08:00:00",
        "departure_time": "06:15:00",
        "end_program": null,
        "days": [
          "Thu",
          "Fri"
        ],
        "rute": 6
      }
    }
  ]
}