{
    "count": 142,
    "next": "http://0.0.0.0:9990/rest/v1/travel/?format=json&page=2",
    "previous": null,
    "results": [
        {
            "id": 83,
            "estimated_departure": "18/11/21 00:15",
            "estimated_arrival": "18/11/21 03:00",
            "total_capacity": 0,
            "count_passages": 0,
            "finished": false,
            "rute": {
                "stops": [
                    {
                        "id": 24,
                        "deleted": false,
                        "created_at": "2021-10-30T01:39:28.241576+00:00",
                        "updated_at": "2021-10-30T01:39:28.241604+00:00",
                        "name": "Careaga y Lavalleja",
                        "location": "-33.24742283069547,-58.02244395017624"
                    },
                    {
                        "id": 22,
                        "deleted": false,
                        "created_at": "2021-10-30T01:38:27.960907+00:00",
                        "updated_at": "2021-10-30T01:38:27.960927+00:00",
                        "name": "Careaga y Rivera",
                        "location": "-33.24977363119237,-58.03813487291336"
                    },
                    {
                        "id": 25,
                        "deleted": false,
                        "created_at": "2021-10-30T01:40:10.392471+00:00",
                        "updated_at": "2021-10-30T01:40:10.392491+00:00",
                        "name": "Los Arrayanes",
                        "location": "-33.2299648132379,-58.02013993263244"
                    },
                    {
                        "id": 5,
                        "deleted": false,
                        "created_at": "2021-10-16T18:21:14.372166+00:00",
                        "updated_at": "2021-10-16T18:23:55.933548+00:00",
                        "name": "Mercedes - Rotonda Bandera",
                        "location": "-33.246547993755904,-58.0158805847168"
                    },
                    {
                        "id": 23,
                        "deleted": false,
                        "created_at": "2021-10-30T01:38:57.962710+00:00",
                        "updated_at": "2021-10-30T01:38:57.962731+00:00",
                        "name": "Plaza Independencia",
                        "location": "-33.24853543117861,-58.030061423778534"
                    }
                ],
                "id": 7,
                "deleted": false,
                "created_at": "2021-10-30T01:42:30.906234+00:00",
                "updated_at": "2021-10-30T01:43:23.136034+00:00",
                "name": "Velódromo - Vivero",
                "origin": {
                    "id": 21,
                    "deleted": false,
                    "created_at": "2021-10-30T01:36:29.528767+00:00",
                    "updated_at": "2021-10-30T01:36:29.528787+00:00",
                    "name": "Velódromo",
                    "location": "-33.25091760474382,-58.04600179195403"
                },
                "destination": {
                    "id": 10,
                    "deleted": false,
                    "created_at": "2021-10-16T18:31:50.437823+00:00",
                    "updated_at": "2021-10-16T18:31:50.437845+00:00",
                    "name": "MdP - Vivero",
                    "location": "-33.111673732982595,-58.18565368652343"
                }
            },
            "program": {
                "vehicles": [
                    3
                ],
                "subscribed_passenger": [],
                "id": 4,
                "deleted": false,
                "created_at": "2021-10-30T02:27:38.317448+00:00",
                "updated_at": "2021-10-30T02:27:38.317470+00:00",
                "capacity_limit": 50,
                "arrival_time": "03:00:00",
                "departure_time": "00:15:00",
                "end_program": "2021-11-28",
                "days": [
                    "Mon",
                    "Tue",
                    "Wed",
                    "Thu",
                    "Fri"
                ],
                "rute": 7
            }
        }]}